{
    "useDatabase"                                   :       false,
    "appInDeveloping"                               :       true,
    "instanceDatabase"                              :       "Mysqli",
    
    "title"                                         :       "YAROA FRAMEWORK",
    
    "server"                                        :       "http://localhost/",
    "defaultKeyRouting"                             :       "sample",
    
    "dirModules"                                    :       "Apps",
    "dirLayouts"                                    :       "layouts",
    "dirProject"                                    :       "yaroa/",
    "dirLogs"                                       :       "logs",
    "dirMainFileJs"                                 :       "js",
    "dirMainFileCss"                                :       "css",
    
    "fileLayoutError"                               :       "Error",

    "useStorageSession"                             :       false,
    "storageTable"                                  :       "sessions",
    "primaryKeyField"                               :       "record_id",
    "storageIdField"                                :       "session_id",
    "StorageDataField"                              :       "session_data",

    "localservers"                                  :       "localhost,127.0.0.1,localhost:8080",
    "version"                                       :       "2.2"
}
